…
    ## 
    ##        Estimate Std. Error   Lower   Upper
    ## e:1:50  0.17905    0.00849 0.16171 0.19639
    ## 
    ## Estimated effective doses
    ## 
    ##         Estimate Std. Error     Lower     Upper
    ## e:1:50 0.1587569  0.0098007 0.1387411 0.1787727
    ## 
    ## Estimated effective doses
    ## 
    ##        Estimate Std. Error    Lower    Upper
    ## e:1:50 0.211026   0.012571 0.185419 0.236633

    ## # A tibble: 75 × 4
    ## # Groups:   is [75]
    ##    is         data               ll.4.mod   ec50
    ##    <chr>      <list>             <list>    <dbl>
    ##  1 ILSO_5-41c <tibble [36 × 11]> <drc>    0.107 
    ##  2 ILSO_5-42c <tibble [36 × 11]> <drc>    0.249 
    ##  3 ILSO_5-49b <tibble [36 × 11]> <drc>    0.168 
    ##  4 ILSO_6-1   <tibble [36 × 11]> <drc>    0.108 
    ##  5 ILSO_6-12B <tibble [36 × 11]> <drc>    0.184 
    ##  6 ILSO_6-2b  <tibble [36 × 11]> <drc>    0.227 
    ##  7 ILSO_6-33C <tibble [36 × 11]> <drc>    0.102 
    ##  8 ILSO_6-39C <tibble [36 × 11]> <drc>    0.110 
    ##  9 ILSO_6-15b <tibble [36 × 11]> <drc>    0.123 
    ## 10 ILSO_6-28C <tibble [36 × 11]> <drc>    0.0999
    ## # ℹ 65 more rows
…
    ## 
    ##        Estimate Std. Error   Lower   Upper
    ## e:1:50  0.17905    0.00849 0.16171 0.19639
    ## 
    ## Estimated effective doses
    ## 
    ##         Estimate Std. Error     Lower     Upper
    ## e:1:50 0.1587569  0.0098007 0.1387411 0.1787727
    ## 
    ## Estimated effective doses
    ## 
    ##        Estimate Std. Error    Lower    Upper
    ## e:1:50 0.211026   0.012571 0.185419 0.236633

    ## # A tibble: 75 × 4
    ## # Groups:   is [75]
    ##    is         data               ll.4.mod   ec50
    ##    <chr>      <list>             <list>    <dbl>
    ##  1 ILSO_5-41c <tibble [36 × 11]> <drc>    0.107 
    ##  2 ILSO_5-42c <tibble [36 × 11]> <drc>    0.249 
    ##  3 ILSO_5-49b <tibble [36 × 11]> <drc>    0.168 
    ##  4 ILSO_6-1   <tibble [36 × 11]> <drc>    0.108 
    ##  5 ILSO_6-12B <tibble [36 × 11]> <drc>    0.184 
    ##  6 ILSO_6-2b  <tibble [36 × 11]> <drc>    0.227 
    ##  7 ILSO_6-33C <tibble [36 × 11]> <drc>    0.102 
    ##  8 ILSO_6-39C <tibble [36 × 11]> <drc>    0.110 
    ##  9 ILSO_6-15b <tibble [36 × 11]> <drc>    0.123 
    ## 10 ILSO_6-28C <tibble [36 × 11]> <drc>    0.0999
    ## # ℹ 65 more rows
…
